-------------------------------------------------------------------------------
Test set: org.springframework.samples.petclinic.owner.PetTypeFormatterTests
-------------------------------------------------------------------------------
Tests run: 3, Failures: 0, Errors: 0, Skipped: 0, Time elapsed: 0.125 s - in org.springframework.samples.petclinic.owner.PetTypeFormatterTests
