/home/thesis/Documents/scanningtool/src/test/java/org/springframework/samples/petclinic/PetClinicIntegrationTests.java
/home/thesis/Documents/scanningtool/src/test/java/org/springframework/samples/petclinic/vet/VetControllerTests.java
/home/thesis/Documents/scanningtool/src/test/java/org/springframework/samples/petclinic/owner/PetTypeFormatterTests.java
/home/thesis/Documents/scanningtool/src/test/java/org/springframework/samples/petclinic/vet/VetTests.java
/home/thesis/Documents/scanningtool/src/test/java/org/springframework/samples/petclinic/owner/OwnerControllerTests.java
/home/thesis/Documents/scanningtool/src/test/java/org/springframework/samples/petclinic/model/ValidatorTests.java
/home/thesis/Documents/scanningtool/src/test/java/org/springframework/samples/petclinic/owner/PetControllerTests.java
/home/thesis/Documents/scanningtool/src/test/java/org/springframework/samples/petclinic/system/CrashControllerTests.java
/home/thesis/Documents/scanningtool/src/test/java/org/springframework/samples/petclinic/owner/VisitControllerTests.java
/home/thesis/Documents/scanningtool/src/test/java/org/springframework/samples/petclinic/service/EntityUtils.java
/home/thesis/Documents/scanningtool/src/test/java/org/springframework/samples/petclinic/service/ClinicServiceTests.java
